[
    {
        "style": [
            "Alternative Rock",
            "Jazz-Rock",
            "Fusion"
        ],
        "thumb": "https://img.discogs.com/_w5-hP0Ry6SK08uhHJQur7K5p5k=/fit-in/600x591/filters:strip_icc():format(jpeg):mode_rgb():quality(90)/discogs-images/R-15815023-1598297267-5304.jpeg.jpg",
        "format": [
            "Vinyl",
            "LP",
            "Album"
        ],
        "country": "US",
        "barcode": [
            "(31,456) RE I",
            "(31,457) RE I",
            "MS-2094 31456-1",
            "MS-2094 31457-1",
            "S1\u00b7MS 2094A 31456-Re1-T2 ",
            "25 MS 20941 31457 Re1\u00b7T2",
            "ASCAP"
        ],
        "uri": "/Frank-Zappa-Waka-Jawaka-Hot-Rats/master/35744",
        "community": {
            "have": 3089,
            "want": 1992
        },
        "label": [
            "Bizarre Records",
            "Reprise Records",
            "Warner Bros. Records Inc.",
            "Warner Bros. - Seven Arts Records, Inc.",
            "Warner Bros. Records Inc.",
            "Warner Bros. Records Inc.",
            "Munchkin Music",
            "Paramount Studios"
        ],
        "catno": "MS 2094",
        "year": "1972",
        "genre": [
            "Rock"
        ],
        "title": "Frank Zappa - Waka / Jawaka \u2022 Hot Rats",
        "resource_url": "https://api.discogs.com/masters/35744",
        "type": "master",
        "id": 35744
    },
    {
        "style": [
            "Alternative Rock",
            "Jazz-Rock",
            "Fusion"
        ],
        "thumb": "https://img.discogs.com/_w5-hP0Ry6SK08uhHJQur7K5p5k=/fit-in/600x591/filters:strip_icc():format(jpeg):mode_rgb():quality(90)/discogs-images/R-15815023-1598297267-5304.jpeg.jpg",
        "format": [
            "Vinyl",
            "LP",
            "Album"
        ],
        "country": "US",
        "barcode": [
            "(31,456) RE I",
            "(31,457) RE I",
            "MS-2094 31456-1",
            "MS-2094 31457-1",
            "S1\u00b7MS 2094A 31456-Re1-T2 ",
            "25 MS 20941 31457 Re1\u00b7T2",
            "ASCAP"
        ],
        "uri": "/Frank-Zappa-Waka-Jawaka-Hot-Rats/master/35744",
        "community": {
            "have": 3089,
            "want": 1992
        },
        "label": [
            "Bizarre Records",
            "Reprise Records",
            "Warner Bros. Records Inc.",
            "Warner Bros. - Seven Arts Records, Inc.",
            "Warner Bros. Records Inc.",
            "Warner Bros. Records Inc.",
            "Munchkin Music",
            "Paramount Studios"
        ],
        "catno": "MS 2094",
        "year": "1972",
        "genre": [
            "Rock"
        ],
        "title": "Frank Zappa - Waka / Jawaka \u2022 Hot Rats",
        "resource_url": "https://api.discogs.com/masters/35744",
        "type": "master",
        "id": 35744
    },
    {
        "style": [
            "Alternative Rock",
            "Jazz-Rock",
            "Fusion"
        ],
        "thumb": "https://img.discogs.com/_w5-hP0Ry6SK08uhHJQur7K5p5k=/fit-in/600x591/filters:strip_icc():format(jpeg):mode_rgb():quality(90)/discogs-images/R-15815023-1598297267-5304.jpeg.jpg",
        "format": [
            "Vinyl",
            "LP",
            "Album"
        ],
        "country": "US",
        "barcode": [
            "(31,456) RE I",
            "(31,457) RE I",
            "MS-2094 31456-1",
            "MS-2094 31457-1",
            "S1\u00b7MS 2094A 31456-Re1-T2 ",
            "25 MS 20941 31457 Re1\u00b7T2",
            "ASCAP"
        ],
        "uri": "/Frank-Zappa-Waka-Jawaka-Hot-Rats/master/35744",
        "community": {
            "have": 3089,
            "want": 1992
        },
        "label": [
            "Bizarre Records",
            "Reprise Records",
            "Warner Bros. Records Inc.",
            "Warner Bros. - Seven Arts Records, Inc.",
            "Warner Bros. Records Inc.",
            "Warner Bros. Records Inc.",
            "Munchkin Music",
            "Paramount Studios"
        ],
        "catno": "MS 2094",
        "year": "1972",
        "genre": [
            "Rock"
        ],
        "title": "Frank Zappa - Waka / Jawaka \u2022 Hot Rats",
        "resource_url": "https://api.discogs.com/masters/35744",
        "type": "master",
        "id": 35744
    }
]